<?xml version="1.0" encoding="utf-8"?>
<!-- Generator: Adobe Illustrator 19.2.1, SVG Export Plug-In . SVG Version: 6.00 Build 0)  -->
<svg version="1.1" id="Layer_1" xmlns="http://www.w3.org/2000/svg" xmlns:xlink="http://www.w3.org/1999/xlink" x="0px" y="0px"
	 viewBox="0 0 64 64" style="enable-background:new 0 0 64 64;" xml:space="preserve">
<style type="text/css">
	.st0{fill:#46345C;}
</style>
<g>
	<polygon class="st0" points="41.7,40.3 33,31.6 33,12 31,12 31,32.4 40.3,41.7 	"/>
	<rect x="4" y="31" class="st0" width="4" height="2"/>
	<rect x="56" y="31" class="st0" width="4" height="2"/>
	<rect x="31" y="56" class="st0" width="2" height="4"/>
	<rect x="31" y="4" class="st0" width="2" height="4"/>
	<path class="st0" d="M53.7,9H62V7H51l-1,1v11h2v-8.8l4.5,4.5C60.1,19.7,62,25.7,62,32c0,16.5-13.5,30-30,30S2,48.5,2,32
		S15.5,2,32,2V0C14.4,0,0,14.4,0,32s14.4,32,32,32s32-14.4,32-32c0-6.7-2.1-13.1-5.9-18.6L53.7,9z"/>
</g>
</svg>
