<?xml version="1.0" encoding="utf-8"?>
<!-- Generator: Adobe Illustrator 19.2.1, SVG Export Plug-In . SVG Version: 6.00 Build 0)  -->
<svg version="1.1" id="Layer_1" xmlns="http://www.w3.org/2000/svg" xmlns:xlink="http://www.w3.org/1999/xlink" x="0px" y="0px"
	 viewBox="0 0 213.8 78.4" style="enable-background:new 0 0 213.8 78.4;" xml:space="preserve">
<style type="text/css">
	.st0{fill:#FFFFFF;}
</style>
<g>
	<path class="st0" d="M46.5,43.3L34.8,54.3c-4.1,3.9-10.5,3.8-14.4-0.4c-3.9-4.1-3.8-10.5,0.4-14.4s10.5-3.8,14.4,0.4
		c1.5,1.6,3.6-0.4,2.1-2c-5-5.3-13.3-5.5-18.6-0.5S13.3,50.7,18.3,56s13.3,5.5,18.6,0.5l11.6-11.1C48.9,45.8,46.2,42.9,46.5,43.3z"
		/>
	<path class="st0" d="M47.2,46.4c0,0.5,0.4,1,0.9,1c0.5,0,1-0.4,1-0.9l0.1-2.9c0-0.5-0.4-1-0.9-1l-2.9-0.1c-0.5,0-1,0.4-1,0.9
		c0,0.5,0.4,1,0.9,1c0,0,1.5-0.5,1.8-0.1C47.4,44.6,47.2,46.4,47.2,46.4z"/>
</g>
<g>
	<path class="st0" d="M33.7,50.5l11.6-11.1c4.1-3.9,10.5-3.8,14.4,0.4s3.8,10.5-0.4,14.4S48.9,58,45,53.8c-1.5-1.6-3.6,0.4-2.1,2
		c5,5.3,13.3,5.5,18.6,0.5c5.3-5,5.5-13.3,0.5-18.6s-13.3-5.5-18.6-0.5L31.7,48.3C31.3,47.9,34.1,50.8,33.7,50.5z"/>
	<path class="st0" d="M33,47.3c0-0.5-0.4-1-0.9-1c-0.5,0-1,0.4-1,0.9L31,50.1c0,0.5,0.4,1,0.9,1l2.9,0.1c0.5,0,1-0.4,1-0.9
		c0-0.5-0.4-1-0.9-1c0,0-1.5,0.5-1.8,0.1C32.8,49.1,33,47.3,33,47.3z"/>
</g>
<g>
	<path class="st0" d="M53.6,33.7c-0.1-0.6-0.4-1.5-0.7-2.4c-2-5-5.9-7.2-6.6-7.6c-1.8-1-3.9-1.6-6.1-1.7c-2.2-0.1-4.3,0.4-6.2,1.3
		c-1.2,0.6-4.9,2.6-7,7.2c-0.6,1.4-0.9,2.6-1,3.4c1.1-0.1,2.2-0.1,3.2-0.2c0.2-0.7,0.6-1.7,1.2-2.8c1.2-2.1,2.8-3.3,3.8-3.9
		c1.7-1.1,3.7-1.7,5.9-1.6c2.2,0.1,4.1,0.8,5.8,1.9c0.5,0.3,2.2,1.6,3.6,4.1c0.6,1.1,0.9,2,1.1,2.7"/>
</g>
<g>
	<path class="st0" d="M76.5,25.3h-3.9v-2.2h10.2v2.2h-3.9v19.1h-2.4V25.3z"/>
	<path class="st0" d="M95.9,33.6c0,8-2.7,11-6.1,11c-3.5,0-5.9-3.8-5.9-10.9c0-7,2.5-10.8,6.2-10.8C93.7,22.9,95.9,26.8,95.9,33.6z
		 M86.4,33.8c0,4.4,0.9,8.7,3.5,8.7c2.7,0,3.5-4.6,3.5-8.8c0-4-0.7-8.7-3.5-8.7C87.2,25,86.4,29.4,86.4,33.8z"/>
	<path class="st0" d="M101.2,25.3h-3.9v-2.2h10.2v2.2h-3.9v19.1h-2.4V25.3z"/>
	<path class="st0" d="M111.6,38l-1.4,6.4h-2.3l4.9-21.2h2.7l4.7,21.2h-2.4l-1.4-6.4H111.6z M116,36.1l-1.1-5.4
		c-0.3-1.5-0.6-3.3-0.9-4.9h-0.1c-0.3,1.6-0.6,3.4-0.9,4.9l-1.1,5.4H116z"/>
	<path class="st0" d="M123.4,23.1h2.4v19.2h6v2h-8.4V23.1z"/>
	<path class="st0" d="M149.7,44c-0.7,0.3-1.7,0.6-3,0.6c-4.2,0-7.1-3.3-7.1-10.6c0-8.4,4.2-11.1,7.5-11.1c1.3,0,2.2,0.3,2.6,0.5
		l-0.5,2c-0.5-0.2-1-0.4-2.1-0.4c-2.3,0-4.9,2.2-4.9,8.7s2.4,8.6,5,8.6c0.9,0,1.7-0.2,2.2-0.5L149.7,44z"/>
	<path class="st0" d="M152.8,23.1h2.4v19.2h6v2h-8.4V23.1z"/>
	<path class="st0" d="M174.1,33.6c0,8-2.7,11-6.1,11c-3.5,0-5.9-3.8-5.9-10.9c0-7,2.5-10.8,6.2-10.8C172,22.9,174.1,26.8,174.1,33.6
		z M164.6,33.8c0,4.4,0.9,8.7,3.5,8.7c2.7,0,3.5-4.6,3.5-8.8c0-4-0.7-8.7-3.5-8.7C165.5,25,164.6,29.4,164.6,33.8z"/>
	<path class="st0" d="M180.1,23.1v14.2c0,3.8,1.3,5.1,2.9,5.1c1.8,0,2.9-1.4,2.9-5.1V23.1h2.4V37c0,5.5-2.3,7.6-5.4,7.6
		c-3.2,0-5.3-2.1-5.3-7.3V23.1H180.1z"/>
	<path class="st0" d="M192.7,23.5c0.9-0.3,2-0.4,3.3-0.4c2.2,0,3.8,0.6,5,1.6c1.6,1.4,2.9,4.2,2.9,8.6c0,4.9-1.2,7.5-2.6,9
		c-1.4,1.6-3.4,2.3-5.9,2.3c-1,0-2-0.1-2.7-0.2V23.5z M195.1,42.4c0.3,0.1,0.7,0.1,0.9,0.1c2.7,0,5.3-1.9,5.3-9.1
		c0-5.4-1.6-8.3-5-8.3c-0.4,0-0.8,0-1.1,0.1V42.4z"/>
</g>
<g>
	<path class="st0" d="M81.2,59.7c-0.4,0.2-0.9,0.3-1.6,0.3c-2.2,0-3.8-1.8-3.8-5.7c0-4.5,2.2-6,4-6c0.7,0,1.2,0.1,1.4,0.3l-0.3,1.1
		c-0.3-0.1-0.6-0.2-1.2-0.2c-1.2,0-2.7,1.2-2.7,4.7s1.3,4.7,2.7,4.7c0.5,0,0.9-0.1,1.2-0.3L81.2,59.7z"/>
	<path class="st0" d="M89.6,54.1c0,4.3-1.5,5.9-3.3,5.9c-1.9,0-3.2-2-3.2-5.9c0-3.8,1.4-5.8,3.4-5.8C88.4,48.3,89.6,50.4,89.6,54.1z
		 M84.4,54.2c0,2.4,0.5,4.7,1.9,4.7c1.5,0,1.9-2.5,1.9-4.7c0-2.1-0.4-4.7-1.9-4.7C84.9,49.4,84.4,51.8,84.4,54.2z"/>
	<path class="st0" d="M92.4,59.9V48.4h1.2l2.1,5.4c0.5,1.2,1.1,2.8,1.5,4h0c-0.1-1.8-0.2-3.3-0.2-5.3v-4.1h1.2v11.5H97l-2.2-5.5
		c-0.5-1.2-1-2.5-1.4-3.9h0c0.1,1.5,0.1,3,0.1,5.4v4H92.4z"/>
	<path class="st0" d="M101.3,58.4c0.4,0.3,1.1,0.5,1.6,0.5c1.2,0,1.9-0.8,1.9-1.9c0-1.1-0.6-1.7-1.5-2.4c-0.9-0.6-2.2-1.7-2.2-3.2
		c0-1.7,1.2-3,3-3c0.7,0,1.3,0.2,1.6,0.4l-0.3,1.1c-0.3-0.2-0.8-0.4-1.4-0.4c-1.1,0-1.6,0.8-1.6,1.6c0,1.1,0.6,1.6,1.7,2.4
		c1.4,1,2,2,2,3.3c0,2-1.4,3.2-3.2,3.2c-0.8,0-1.6-0.3-1.9-0.5L101.3,58.4z"/>
	<path class="st0" d="M110.3,48.4v7.7c0,2.1,0.7,2.8,1.6,2.8c1,0,1.6-0.7,1.6-2.8v-7.7h1.3v7.5c0,3-1.2,4.1-2.9,4.1
		c-1.7,0-2.8-1.1-2.8-4v-7.6H110.3z"/>
	<path class="st0" d="M118,48.4h1.3v10.4h3.2v1.1H118V48.4z"/>
	<path class="st0" d="M125.4,49.6h-2.1v-1.2h5.5v1.2h-2.1v10.3h-1.3V49.6z"/>
	<path class="st0" d="M132.6,48.4v11.5h-1.3V48.4H132.6z"/>
	<path class="st0" d="M136,59.9V48.4h1.2l2.1,5.4c0.5,1.2,1.1,2.8,1.5,4h0c-0.1-1.8-0.2-3.3-0.2-5.3v-4.1h1.2v11.5h-1.2l-2.2-5.5
		c-0.5-1.2-1-2.5-1.4-3.9h0c0.1,1.5,0.1,3,0.1,5.4v4H136z"/>
	<path class="st0" d="M150.8,59.6c-0.5,0.2-1.3,0.4-2,0.4c-1,0-1.9-0.3-2.7-1.1c-0.8-0.9-1.4-2.5-1.4-4.6c0-4.5,2.3-6,4.3-6
		c0.7,0,1.3,0.1,1.6,0.3l-0.3,1.1c-0.3-0.2-0.7-0.3-1.3-0.3c-1.4,0-3,1.1-3,4.7c0,3.5,1.3,4.7,2.7,4.7c0.4,0,0.7-0.1,0.8-0.1V55
		h-1.5v-1.1h2.7V59.6z"/>
</g>
</svg>
